%YAML 1.1
%TAG !u! tag:unity3d.com,2011:
--- !u!114 &11400000
MonoBehaviour:
  m_ObjectHideFlags: 0
  m_CorrespondingSourceObject: {fileID: 0}
  m_PrefabInstance: {fileID: 0}
  m_PrefabAsset: {fileID: 0}
  m_GameObject: {fileID: 0}
  m_Enabled: 1
  m_EditorHideFlags: 0
  m_Script: {fileID: 11500000, guid: ab4692bb8ae05fa4a9928cc0a5f6f719, type: 3}
  m_Name: AK47
  m_EditorClassIdentifier: 
  name: AK-47
  descripcion: Arma de los supuestamente malos
  modoDisparo: 0
  velocidadRafaga: 0.1
  balasPorRafaga: 3
  cargador: 30
  cargadorActual: 30
  municionActual: 270
  municionMaxima: 270
  tiempoRecarga: 1.8
  retroceso: 2
  cadencia: 5
  "da\xF1o": 50
  dispersion: 0.04
  momentum: 120
  alcanceEfectivo: 50
  proyectiles: 1
  shootSound: {fileID: 8300000, guid: 15871051dbffbc7468f68ea6ee2b7123, type: 3}
  efecto: {fileID: 100002, guid: f75efcef4bb42054abf94f8e5c701adc, type: 3}
