%YAML 1.1
%TAG !u! tag:unity3d.com,2011:
--- !u!1045 &1
EditorBuildSettings:
  m_ObjectHideFlags: 0
  serializedVersion: 2
  m_Scenes:
  - enabled: 1
    path: Assets/Scenes/Davilillo.unity
    guid: 851ea89895a042648a82917fa7b1e095
  - enabled: 1
    path: Assets/Scenes/Perder.unity
    guid: 6e97124fa292d30438bd67ed8f57e209
  m_configObjects: {}
